Data Science - Assignment 3
…
Joining, by = "value"

pend_00_21_arbNJ <- pend_00_21_ssb_arbNJ$dataset %>%
  left_join(pend_00_21_ssb_arbNJ$desc_arbNJ) %>%
  mutate("akom_navn" = arbeidsstedskommune, "bkom_navn" = bostedskommune, "akom" = ArbstedKomm, "bkom" = Bokommuen, "aar" = Tid, "pendlere" = value) %>%
  select(aar, akom, akom_navn, bkom, bkom_navn, pendlere) %>%
  as_tibble()

Joining, by = "value"

print(pend_00_21_boNJ, n = 5)

# A tibble: 141,303,350 × 6
  aar   akom  akom_navn bkom  bkom_navn pendlere
  <chr> <chr> <chr>     <chr> <chr>        <int>
1 2000  3001  Halden    1103  Stavanger        0
2 2000  3001  Halden    1103  Stavanger        0
3 2000  3001  Halden    1103  Stavanger        0
4 2000  3001  Halden    1103  Stavanger        0
5 2000  3001  Halden    1103  Stavanger        0
# … with 141,303,345 more rows
# ℹ Use `print(n = ...)` to see more rows

print(pend_00_21_arbNJ, n = 5)

# A tibble: 72,851,892 × 6
  aar   akom  akom_navn bkom  bkom_navn pendlere
  <chr> <chr> <chr>     <chr> <chr>        <int>
1 2000  1103  Stavanger 3001  Halden           0
2 2000  1103  Stavanger 3001  Halden           0
3 2000  1103  Stavanger 3001  Halden           0
4 2000  1103  Stavanger 3001  Halden           0
5 2000  1103  Stavanger 3001  Halden           0
# … with 72,851,887 more rows
# ℹ Use `print(n = ...)` to see more rows
…
